<svg id="Layer_1" data-name="Layer 1" xmlns="http://www.w3.org/2000/svg" viewBox="0 0 24 24">
  <title>Artboard 1 copy 45</title>
  <line x1="12" y1="1" x2="12" y2="2.83" style="fill: none;stroke: #2d2e36;stroke-linecap: round;stroke-linejoin: round; stroke-width: 1.0"/>
  <path d="M14.11,20.89a2.11,2.11,0,0,1-4.22,0" style="fill: none;stroke: #2d2e36;stroke-linecap: round;stroke-linejoin: round; stroke-width: 1.0"/>
  <path d="M12,3.17h0a5.92,5.92,0,0,1,5.92,5.92V11a12.4,12.4,0,0,0,3.41,8.54H2.67A12.4,12.4,0,0,0,6.08,11V9.09A5.92,5.92,0,0,1,12,3.17Z" style="fill: none;stroke: #82ca9c;stroke-linecap: round;stroke-linejoin: round; stroke-width: 1.0"/>
</svg>
